{
  "trigger": {
    "schedule": {
      "interval": "5m"
    }
  },
  "input": {
    "search": {
      "request": {
        "search_type": "query_then_fetch",
        "indices": [
          "pubsub-gitaly-inf-gprd-*"
        ],
        "types": [],
        "body": {
          "size": 0,
          "query": {
            "bool": {
              "must": [
                {
                  "match_phrase": {
                    "json.grpc.code.keyword": {
                      "query": "OK"
                    }
                  }
                },
                {
                  "range": {
                    "@timestamp": {
                      "gte": "now-10m",
                      "lte": "now"
                    }
                  }
                }
              ]
            }
          },
          "aggs": {
            "significant_repos": {
              "significant_terms": {
                "field": "json.grpc.request.repoPath.keyword",
                "size": 3
              },
              "aggs": {
                "fqdn": {
                  "top_hits": {
                    "docvalue_fields": [
                      "json.fqdn.keyword"
                    ],
                    "_source": "json.fqdn.keyword",
                    "size": 1
                  }
                },
                "wall_time_ms": {
                  "sum": {
                    "field": "json.grpc.time_ms"
                  }
                }
              }
            }
          }
        }
      }
    }
  },
  "condition" : {
    "script" : {
      "inline" : "ctx.payload.aggregations.significant_repos.buckets.any(bucket -> ((bucket.doc_count / params.time_period_seconds) >= params.minimum_invocation_rate_per_second) && (((bucket.wall_time_ms.value / params.time_period_seconds) >= params.wall_time_ms_per_second_threshold) || ((bucket.doc_count / params.time_period_seconds) >= params.invocation_rate_per_second_threshold)))",
      "lang" : "painless",
      "params" : {
        "time_period_seconds" : 600,
        "wall_time_ms_per_second_threshold": 4000,
        "minimum_invocation_rate_per_second": 20,
        "invocation_rate_per_second_threshold": 100
      }
    }
  },
  "transform" : {
    "script" : {
      "inline" : "['items': ctx.payload.aggregations.significant_repos.buckets.findAll(bucket -> ((bucket.doc_count / params.time_period_seconds) >= params.minimum_invocation_rate_per_second) && (((bucket.wall_time_ms.value / params.time_period_seconds) >= params.wall_time_ms_per_second_threshold) || ((bucket.doc_count / params.time_period_seconds) >= params.invocation_rate_per_second_threshold))).collect(bucket -> ['key': bucket.key, 'count': bucket.doc_count, 'wall_time_ms_per_second': Math.round(bucket.wall_time_ms.value / params.time_period_seconds), 'invocation_rate_per_second': Math.round(bucket.doc_count / params.time_period_seconds), 'fqdn': bucket.fqdn.hits.hits[0].fields['json.fqdn.keyword'][0]])]",
      "lang" : "painless",
      "params" : {
        "time_period_seconds" : 600,
        "wall_time_ms_per_second_threshold": 4000,
        "minimum_invocation_rate_per_second": 20,
        "invocation_rate_per_second_threshold": 100
      }
    }
  },
  "actions": {
    "notify-slack": {
      "throttle_period": "10m",
      "slack": {
        "account": "gitlab_team",
        "message": {
          "from": "ElasticCloud Watcher: gitaly_abuse_1",
          "to": [
            "#alert-prod-abuse"
          ],
          "text": "Unusual Gitaly activity for a project has been detected. Review the runbook at https://gitlab.com/gitlab-com/runbooks/tree/master/troubleshooting/gitaly-unusual-activity.md for more details",
          "dynamic_attachments": {
            "list_path": "ctx.payload.items",
            "attachment_template": {
              "title": "Project: {{key}}",
              "title_link": "https://log.gitlab.net/app/kibana#/visualize/create?type=line&indexPattern=AWM6iM-v1NBBQZg_CdXQ&_g=(filters:!(('$state':(store:globalState),meta:(alias:!n,disabled:!f,index:AWM6iM-v1NBBQZg_CdXQ,key:json.grpc.request.repoPath.keyword,negate:!f,type:phrase,value:Jayugioh%2FJaCards177x254.git),query:(match:(json.grpc.request.repoPath.keyword:(query:{{key}},type:phrase)))),('$state':(store:globalState),exists:(field:json.grpc.code),meta:(alias:!n,disabled:!f,index:AWM6iM-v1NBBQZg_CdXQ,key:json.grpc.code,negate:!f,type:exists,value:exists))),refreshInterval:(display:Off,pause:!f,value:0),time:(from:now-4h,mode:quick,to:now))&_a=(filters:!(),linked:!f,query:(match_all:()),uiState:(),vis:(aggs:!((enabled:!t,id:'1',params:(),schema:metric,type:count),(enabled:!t,id:'2',params:(customInterval:'2h',extended_bounds:(),field:'@timestamp',interval:auto,min_doc_count:1),schema:segment,type:date_histogram),(enabled:!t,id:'3',params:(field:json.grpc.time_ms),schema:metric,type:sum)),listeners:(),params:(addLegend:!t,addTimeMarker:!f,addTooltip:!t,categoryAxes:!((id:CategoryAxis-1,labels:(show:!t,truncate:100),position:bottom,scale:(type:linear),show:!t,style:(),title:(text:'@timestamp+per+5+minutes'),type:category)),grid:(categoryLines:!f,style:(color:%23eee)),legendPosition:right,seriesParams:!((data:(id:'1',label:Count),drawLinesBetweenPoints:!t,mode:normal,show:true,showCircles:!t,type:line,valueAxis:ValueAxis-1),(data:(id:'3',label:'Sum+of+json.grpc.time_ms'),drawLinesBetweenPoints:!t,mode:normal,show:!t,showCircles:!t,type:line,valueAxis:ValueAxis-1)),times:!(),type:line,valueAxes:!((id:ValueAxis-1,labels:(filter:!f,rotate:0,show:!t,truncate:100),name:LeftAxis-1,position:left,scale:(mode:normal,type:linear),show:!t,style:(),title:(text:Count),type:value))),title:'New+Visualization',type:line))",
              "text": "File Server: <https://dashboards.gitlab.net/d/000000204/gitaly-nfs-metrics-per-host?orgId=1&var-fqdn={{fqdn}}&from=now-1h&to=now|{{fqdn}}>\nAverage Gitaly Wall time: {{wall_time_ms_per_second}}ms/second\nAverage rate: invocations per second {{invocation_rate_per_second}}ops/sec"
            }
          }
        }
      }
    }
  }
}
